{
  "index_patterns": [
    "gitlab-workhorse-3-*"
  ],
  "mappings": {
    "_meta": {
      "version": "3"
    },
    "date_detection": false,
    "properties": {
      "@timestamp": {
        "type": "date"
      },
      "agent": {
        "properties": {
          "ephemeral_id": {
            "ignore_above": 1024,
            "type": "keyword"
          },
          "hostname": {
            "ignore_above": 1024,
            "type": "keyword"
          },
          "id": {
            "ignore_above": 1024,
            "type": "keyword"
          },
          "name": {
            "ignore_above": 1024,
            "type": "keyword"
          },
          "type": {
            "ignore_above": 1024,
            "type": "keyword"
          },
          "version": {
            "ignore_above": 1024,
            "type": "keyword"
          }
        }
      },
      "client": {
        "properties": {
          "geo": {
            "properties": {
              "city_name": {
                "ignore_above": 1024,
                "type": "keyword"
              },
              "continent_name": {
                "ignore_above": 1024,
                "type": "keyword"
              },
              "country_iso_code": {
                "ignore_above": 1024,
                "type": "keyword"
              },
              "country_name": {
                "ignore_above": 1024,
                "type": "keyword"
              },
              "location": {
                "type": "geo_point"
              },
              "name": {
                "ignore_above": 1024,
                "type": "keyword"
              },
              "region_iso_code": {
                "ignore_above": 1024,
                "type": "keyword"
              },
              "region_name": {
                "ignore_above": 1024,
                "type": "keyword"
              }
            }
          },
          "ip": {
            "type": "ip"
          }
        }
      },
      "ecs": {
        "properties": {
          "version": {
            "ignore_above": 1024,
            "type": "keyword"
          }
        }
      },
      "event": {
        "properties": {
          "duration": {
            "type": "float"
          },
          "id": {
            "ignore_above": 1024,
            "type": "keyword"
          },
          "type": {
            "ignore_above": 1024,
            "type": "keyword"
          }
        }
      },
      "host": {
        "properties": {
          "name": {
            "ignore_above": 1024,
            "type": "keyword"
          }
        }
      },
      "http": {
        "properties": {
          "request": {
            "properties": {
              "body": {
                "properties": {
                  "bytes": {
                    "type": "long"
                  }
                }
              },
              "method": {
                "ignore_above": 1024,
                "type": "keyword"
              },
              "referrer": {
                "ignore_above": 1024,
                "type": "keyword"
              }
            }
          },
          "response": {
            "properties": {
              "body": {
                "properties": {
                  "bytes": {
                    "type": "long"
                  }
                }
              },
              "status_code": {
                "type": "long"
              }
            }
          },
          "version": {
            "ignore_above": 1024,
            "type": "keyword"
          }
        }
      },
      "input": {
        "properties": {
          "type": {
            "ignore_above": 1024,
            "type": "keyword"
          }
        }
      },
      "log": {
        "properties": {
          "file": {
            "properties": {
              "path": {
                "ignore_above": 1024,
                "type": "keyword"
              }
            }
          },
          "offset": {
            "type": "long"
          }
        }
      },
      "message": {
        "norms": false,
        "type": "text"
      },
      "url": {
        "properties": {
          "original": {
            "fields": {
              "text": {
                "norms": false,
                "type": "text"
              }
            },
            "ignore_above": 1024,
            "type": "keyword"
          }
        }
      },
      "user_agent": {
        "properties": {
          "device": {
            "properties": {
              "name": {
                "ignore_above": 1024,
                "type": "keyword"
              }
            }
          },
          "name": {
            "ignore_above": 1024,
            "type": "keyword"
          },
          "original": {
            "fields": {
              "text": {
                "norms": false,
                "type": "text"
              }
            },
            "ignore_above": 1024,
            "type": "keyword"
          },
          "os": {
            "properties": {
              "family": {
                "ignore_above": 1024,
                "type": "keyword"
              },
              "full": {
                "fields": {
                  "text": {
                    "norms": false,
                    "type": "text"
                  }
                },
                "ignore_above": 1024,
                "type": "keyword"
              },
              "full_name": {
                "ignore_above": 1024,
                "type": "keyword"
              },
              "kernel": {
                "ignore_above": 1024,
                "type": "keyword"
              },
              "name": {
                "fields": {
                  "text": {
                    "norms": false,
                    "type": "text"
                  }
                },
                "ignore_above": 1024,
                "type": "keyword"
              },
              "platform": {
                "ignore_above": 1024,
                "type": "keyword"
              },
              "version": {
                "ignore_above": 1024,
                "type": "keyword"
              }
            }
          },
          "version": {
            "ignore_above": 1024,
            "type": "keyword"
          }
        }
      }
    }
  },
  "order": 1,
  "settings": {
    "index": {
      "number_of_replicas": 0,
      "number_of_routing_shards": 30,
      "number_of_shards": 1,
      "refresh_interval": "5s"
    }
  }
}
