{
  "description": "Inject gitlab-workhorse log",
  "processors": [
    {
      "date": {
        "field": "json.time",
        "formats": [ "ISO8601" ]
      }
    },
    {
      "rename": {
        "field": "json.correlation_id",
        "target_field": "event.id",
        "ignore_missing": true
      }
    },
    {
      "rename": {
        "field": "json.msg",
        "target_field": "message",
        "if": "ctx.json.msg != 'access'"
      }
    },
    {
      "pipeline": {
        "name": "gitlab-workhorse-3-access",
        "if": "ctx.json.msg == 'access'"
      }
    },
    {
      "remove": {
        "field": [
          "json"
        ],
        "ignore_missing": true
      }
    }
  ]
}
