{
  "description": "Inject gitlab-workhorse log",
  "processors": [
    {
      "rename": {
        "field": "json",
        "target_field": "gitlab-workhorse"
      }
    },
    {
      "date": {
        "field": "gitlab-workhorse.time",
        "formats": [ "ISO8601" ]
      }
    },
    {
      "pipeline": {
        "name": "gitlab-workhorse-2-access",
        "if": "ctx['gitlab-workhorse'].msg == 'access'"
      }
    },
    {
      "pipeline": {
        "name": "gitlab-workhorse-2-msg",
        "if": "ctx['gitlab-workhorse'].msg != 'access'"
      }
    }
  ]
}
